Bootstrapping with weights using rTPC • rTPC
…
d_boots
#> # A tibble: 1,100 x 5
#>    boot_num flux            temp ave_rate     sd
#>       <int> <chr>          <dbl>    <dbl>  <dbl>
#>  1        1 photosynthesis    16    0.237 0.0448
#>  2        1 photosynthesis    16    0.237 0.0448
#>  3        1 photosynthesis    16    0.237 0.0448
#>  4        1 photosynthesis    19    0.378 0.112 
#>  5        1 photosynthesis    22    0.833 0.189 
#>  6        1 photosynthesis    28    1.13  0.0507
#>  7        1 photosynthesis    40    2.51  0.218 
#>  8        1 photosynthesis    46    0.237 0.0448
#>  9        1 photosynthesis    46    0.237 0.0448
#> 10        1 photosynthesis    46    0.237 0.0448
#> # … with 1,090 more rows
…
